{
    "ride_directory": "ride",
    "test_directory": "test",
    "envs": {
        "custom": {
            "API_BASE": "http://localhost:6869/",
            "CHAIN_ID": "R",
            "SEED": "waves private node seed with waves tokens",
            "timeout": 60000
        },
        "testnet": {
            "API_BASE": "https://testnodes.wavesnodes.com/",
            "CHAIN_ID": "T",
            "SEED": "scatter debris winter grid smile run erupt cube senior crunch slush depend organ floor pulse",
            "timeout": 60000
        }
    },
    "defaultEnv": "custom",
    "mocha": {
        "timeout": 60000
    }
}